…
\#Question \#2

``` r
a1 <- select(iris_pt2, sepal_length, sepal_width, petal_length, petal_width, species)
   mutate(a1,  sepal_length = sepal_length * 10,
       sepal_width = sepal_width * 10, 
        petal_length = petal_length * 10, 
       petal_width = petal_width * 10)
```

    ## # A tibble: 150 x 5
    ##    sepal_length sepal_width petal_length petal_width species
    ##           <dbl>       <dbl>        <dbl>       <dbl> <fct>  
    ##  1           51          35           14           2 setosa 
    ##  2           49          30           14           2 setosa 
    ##  3           47          32           13           2 setosa 
    ##  4           46          31           15           2 setosa 
    ##  5           50          36           14           2 setosa 
    ##  6           54          39           17           4 setosa 
    ##  7           46          34           14           3 setosa 
    ##  8           50          34           15           2 setosa 
    ##  9           44          29           14           2 setosa 
    ## 10           49          31           15           1 setosa 
    ## # ... with 140 more rows
…
    ## `summarise()` ungrouping output (override with `.groups` argument)

``` r
Width_summary
```

    ## # A tibble: 22 x 5
    ##    Petal.Width petal_mean petal_sem ci_upper_limit ci_lower_limit
    ##          <dbl>      <dbl>     <dbl>          <dbl>          <dbl>
    ##  1         0.1        0.1    0.0447          0.188         0.0123
    ##  2         0.2        0.2    0.0371          0.273         0.127 
    ##  3         0.3        0.3    0.113           0.522         0.0778
    ##  4         0.4        0.4    0.151           0.696         0.104 
    ##  5         0.5        0.5    0.5             1.48         -0.48  
    ##  6         0.6        0.6    0.6             1.78         -0.576 
    ##  7         1          1      0.378           1.74          0.259 
    ##  8         1.1        1.1    0.635           2.34         -0.145 
    ##  9         1.2        1.2    0.537           2.25          0.148 
    ## 10         1.3        1.3    0.361           2.01          0.593 
    ## # ... with 12 more rows
…
